UART_RX_TX.sim/sim_1/behav/xsim/dump_uart_rx.vcd
$date
   Fri Nov 26 23:20:26 2021
$end
$version
  2019.1
$end
$timescale
  1ps
$end
$scope module tb_uart_rx $end
$var reg 1 ! ref_clk $end
$var reg 1 " input_rx $end
$var reg 1 # clk $end
$var wire 8 $ data [7:0] $end
$var wire 1 % converted $end
$var wire 1 & data_valid $end
$var reg 8 ' test_sequence [7:0] $end
$var reg 1 ( current_bit $end
$var integer 32 ) i $end
$scope module DUT $end
$var wire 1 * rx $end
$var wire 1 + i_clk $end
$var reg 8 , data [7:0] $end
$var reg 1 - converted $end
$var reg 1 . data_valid $end
$var reg 4 / bit_location [3:0] $end
$var reg 1 0 rx_started $end
$var reg 2 1 state [1:0] $end
$var reg 4 2 insert_location [3:0] $end
$var reg 15 3 oversampled_bit [14:0] $end
$var reg 9 4 sampled_rx_data [8:0] $end
$var parameter 32 5 BAUD_RATE [31:0] $end
$var parameter 32 6 CLK_FREQ_MHZ [31:0] $end
$var parameter 32 7 FRAME_BITS [31:0] $end
$var parameter 32 8 PARITY_BIT [31:0] $end
$var parameter 32 9 STOP_BITS [31:0] $end
$var parameter 32 : IDLE [31:0] $end
$var parameter 32 ; DETECT_START [31:0] $end
$var parameter 32 < STARTED [31:0] $end
$var parameter 32 = CONVERSION [31:0] $end
$var parameter 32 > TOTAL_RX_BITS [31:0] $end
$var parameter 32 ? OVERSAMPLE_FACTOR [31:0] $end
$var parameter 0 @ CLK_DIV_FACTOR $end
$var parameter 0 A SAMPLE_LOC_1 $end
$var parameter 0 B SAMPLE_LOC_2 $end
$var parameter 0 C SAMPLE_LOC_3 $end
$scope function obtained_bit $end
$var reg 1 D obtained_bit $end
$var reg 15 E oversampled_vector [14:0] $end
$upscope $end
$upscope $end
$upscope $end
$enddefinitions $end
#0
$dumpvars
x!
1"
0#
bx $
x%
x&
b11010101 '
0(
bx )
1*
0+
bx ,
x-
x.
b0 /
10
b0 1
b0 2
bx 3
b0 4
b11100001000000000 5
b11001 6
b1000 7
b10 8
b1 9
b0 :
b1 ;
b10 <
b11 =
b1001 >
b1111 ?
b1110 @
b110 A
b111 B
b1000 C
xD
bx E
$end
#270000
1#
b0 $
0%
0&
1+
b0 ,
0-
0.
b0 3
#540000
0#
0+
#810000
1#
1+
#1080000
0#
0+
#1350000
1#
1+
#1620000
0#
0+
#1890000
0!
0"
1#
1(
b0 )
0*
1+
b1 1
#2160000
0#
0+
#2430000
1#
1+
b1 2
#2700000
0#
0+
#2970000
1#
1+
b10 2
#3240000
0#
0+
#3510000
1#
1+
b11 2
#3780000
0#
0+
#4050000
1#
1+
b100 2
#4320000
0#
0+
#4340000
1!
#4590000
1#
1+
b101 2
#4860000
0#
0+
#5130000
1#
1+
b110 2
#5400000
0#
0+
#5670000
1#
1+
b111 2
#5940000
0#
0+
#6210000
1#
1+
b1000 2
#6480000
0#
0+
#6750000
1#
1+
b1001 2
#7020000
0#
0+
#7290000
1#
1+
b1010 2
#7560000
0#
0+
#7830000
1#
1+
00
b1011 2
0D
b0 E
#8100000
0#
0+
#8370000
1#
1+
b10 1
b0 2
#8640000
0#
0+
#8680000
0!
1"
0(
b1 )
1*
#8910000
1#
1+
b1 2
b1 3
#9180000
0#
0+
#9450000
1#
1+
b10 2
b11 3
#9720000
0#
0+
#9990000
1#
1+
b11 2
b111 3
#10260000
0#
0+
#10530000
1#
1+
b100 2
b1111 3
#10800000
0#
0+
#11070000
1#
1+
b101 2
b11111 3
#11340000
0#
0+
#11610000
1#
1+
b110 2
b111111 3
#11880000
0#
0+
#12150000
1#
1+
b111 2
b1111111 3
#12420000
0#
0+
#12690000
1#
1+
b1000 2
b11111111 3
#12960000
0#
0+
#13020000
1!
#13230000
1#
1+
b1001 2
b111111111 3
#13500000
0#
0+
#13770000
1#
1+
b1010 2
b1111111111 3
#14040000
0#
0+
#14310000
1#
1+
b1011 2
b11111111111 3
#14580000
0#
0+
#14850000
1#
1+
b1100 2
b111111111111 3
#15120000
0#
0+
#15390000
1#
1+
b1101 2
b1111111111111 3
#15660000
0#
0+
#15930000
1#
1+
b1110 2
b11111111111111 3
#16200000
0#
0+
#16470000
1#
1+
b1 /
b1111 2
b0 3
b1 4
1D
b11111111111111 E
#16740000
0#
0+
#17010000
1#
1+
b0 2
#17280000
0#
0+
#17360000
0!
0"
1(
b10 )
0*
#17550000
1#
1+
b1 2
#17820000
0#
0+
#18090000
1#
1+
b10 2
#18360000
0#
0+
#18630000
1#
1+
b11 2
#18900000
0#
0+
#19170000
1#
1+
b100 2
#19440000
0#
0+
#19710000
1#
1+
b101 2
#19980000
0#
0+
#20250000
1#
1+
b110 2
#20520000
0#
0+
#20790000
1#
1+
b111 2
#21060000
0#
0+
#21330000
1#
1+
b1000 2
#21600000
0#
0+
#21700000
1!
#21870000
1#
1+
b1001 2
#22140000
0#
0+
#22410000
1#
1+
b1010 2
#22680000
0#
0+
#22950000
1#
1+
b1011 2
#23220000
0#
0+
#23490000
1#
1+
b1100 2
#23760000
0#
0+
#24030000
1#
1+
b1101 2
#24300000
0#
0+
#24570000
1#
1+
b1110 2
#24840000
0#
0+
#25110000
1#
1+
b10 /
b1111 2
0D
b0 E
#25380000
0#
0+
#25650000
1#
1+
b0 2
#25920000
0#
0+
#26040000
0!
1"
0(
b11 )
1*
#26190000
1#
1+
b1 2
b1 3
#26460000
0#
0+
#26730000
1#
1+
b10 2
b11 3
#27000000
0#
0+
#27270000
1#
1+
b11 2
b111 3
#27540000
0#
0+
#27810000
1#
1+
b100 2
b1111 3
#28080000
0#
0+
#28350000
1#
1+
b101 2
b11111 3
#28620000
0#
0+
#28890000
1#
1+
b110 2
b111111 3
#29160000
0#
0+
#29430000
1#
1+
b111 2
b1111111 3
#29700000
0#
0+
#29970000
1#
1+
b1000 2
b11111111 3
#30240000
0#
0+
#30380000
1!
#30510000
1#
1+
b1001 2
b111111111 3
#30780000
0#
0+
#31050000
1#
1+
b1010 2
b1111111111 3
#31320000
0#
0+
#31590000
1#
1+
b1011 2
b11111111111 3
#31860000
0#
0+
#32130000
1#
1+
b1100 2
b111111111111 3
#32400000
0#
0+
#32670000
1#
1+
b1101 2
b1111111111111 3
#32940000
0#
0+
#33210000
1#
1+
b1110 2
b11111111111111 3
#33480000
0#
0+
#33750000
1#
1+
b11 /
b1111 2
b0 3
b101 4
1D
b11111111111111 E
#34020000
0#
0+
#34290000
1#
1+
b0 2
#34560000
0#
0+
#34720000
0!
0"
1(
b100 )
0*
#34830000
1#
1+
b1 2
#35100000
0#
0+
#35370000
1#
1+
b10 2
#35640000
0#
0+
#35910000
1#
1+
b11 2
#36180000
0#
0+
#36450000
1#
1+
b100 2
#36720000
0#
0+
#36990000
1#
1+
b101 2
#37260000
0#
0+
#37530000
1#
1+
b110 2
#37800000
0#
0+
#38070000
1#
1+
b111 2
#38340000
0#
0+
#38610000
1#
1+
b1000 2
#38880000
0#
0+
#39060000
1!
#39150000
1#
1+
b1001 2
#39420000
0#
0+
#39690000
1#
1+
b1010 2
#39960000
0#
0+
#40230000
1#
1+
b1011 2
#40500000
0#
0+
#40770000
1#
1+
b1100 2
#41040000
0#
0+
#41310000
1#
1+
b1101 2
#41580000
0#
0+
#41850000
1#
1+
b1110 2
#42120000
0#
0+
#42390000
1#
1+
b100 /
b1111 2
0D
b0 E
#42660000
0#
0+
#42930000
1#
1+
b0 2
#43200000
0#
0+
#43400000
0!
1"
0(
b101 )
1*
#43470000
1#
1+
b1 2
b1 3
#43740000
0#
0+
#44010000
1#
1+
b10 2
b11 3
#44280000
0#
0+
#44550000
1#
1+
b11 2
b111 3
#44820000
0#
0+
#45090000
1#
1+
b100 2
b1111 3
#45360000
0#
0+
#45630000
1#
1+
b101 2
b11111 3
#45900000
0#
0+
#46170000
1#
1+
b110 2
b111111 3
#46440000
0#
0+
#46710000
1#
1+
b111 2
b1111111 3
#46980000
0#
0+
#47250000
1#
1+
b1000 2
b11111111 3
#47520000
0#
0+
#47740000
1!
#47790000
1#
1+
b1001 2
b111111111 3
#48060000
0#
0+
#48330000
1#
1+
b1010 2
b1111111111 3
#48600000
0#
0+
#48870000
1#
1+
b1011 2
b11111111111 3
#49140000
0#
0+
#49410000
1#
1+
b1100 2
b111111111111 3
#49680000
0#
0+
#49950000
1#
1+
b1101 2
b1111111111111 3
#50220000
0#
0+
#50490000
1#
1+
b1110 2
b11111111111111 3
#50760000
0#
0+
#51030000
1#
1+
b101 /
b1111 2
b0 3
b10101 4
1D
b11111111111111 E
#51300000
0#
0+
#51570000
1#
1+
b0 2
#51840000
0#
0+
#52080000
0!
0"
1(
b110 )
0*
#52110000
1#
1+
b1 2
#52380000
0#
0+
#52650000
1#
1+
b10 2
#52920000
0#
0+
#53190000
1#
1+
b11 2
#53460000
0#
0+
#53730000
1#
1+
b100 2
#54000000
0#
0+
#54270000
1#
1+
b101 2
#54540000
0#
0+
#54810000
1#
1+
b110 2
#55080000
0#
0+
#55350000
1#
1+
b111 2
#55620000
0#
0+
#55890000
1#
1+
b1000 2
#56160000
0#
0+
#56420000
1!
#56430000
1#
1+
b1001 2
#56700000
0#
0+
#56970000
1#
1+
b1010 2
#57240000
0#
0+
#57510000
1#
1+
b1011 2
#57780000
0#
0+
#58050000
1#
1+
b1100 2
#58320000
0#
0+
#58590000
1#
1+
b1101 2
#58860000
0#
0+
#59130000
1#
1+
b1110 2
#59400000
0#
0+
#59670000
1#
1+
b110 /
b1111 2
0D
b0 E
#59940000
0#
0+
#60210000
1#
1+
b0 2
#60480000
0#
0+
#60750000
1#
1+
b1 2
#60760000
0!
1"
b111 )
1*
#61020000
0#
0+
#61290000
1#
1+
b10 2
b10 3
#61560000
0#
0+
#61830000
1#
1+
b11 2
b110 3
#62100000
0#
0+
#62370000
1#
1+
b100 2
b1110 3
#62640000
0#
0+
#62910000
1#
1+
b101 2
b11110 3
#63180000
0#
0+
#63450000
1#
1+
b110 2
b111110 3
#63720000
0#
0+
#63990000
1#
1+
b111 2
b1111110 3
#64260000
0#
0+
#64530000
1#
1+
b1000 2
b11111110 3
#64800000
0#
0+
#65070000
1#
1+
b1001 2
b111111110 3
#65100000
1!
#65340000
0#
0+
#65610000
1#
1+
b1010 2
b1111111110 3
#65880000
0#
0+
#66150000
1#
1+
b1011 2
b11111111110 3
#66420000
0#
0+
#66690000
1#
1+
b1100 2
b111111111110 3
#66960000
0#
0+
#67230000
1#
1+
b1101 2
b1111111111110 3
#67500000
0#
0+
#67770000
1#
1+
b1110 2
b11111111111110 3
#68040000
0#
0+
#68310000
1#
1+
b111 /
b1111 2
b0 3
b1010101 4
1D
b11111111111110 E
#68580000
0#
0+
#68850000
1#
1+
b0 2
#69120000
0#
0+
#69390000
1#
1+
b1 2
b1 3
#69440000
0!
b1000 )
#69660000
0#
0+
#69930000
1#
1+
b10 2
b11 3
#70200000
0#
0+
#70470000
1#
1+
b11 2
b111 3
#70740000
0#
0+
#71010000
1#
1+
b100 2
b1111 3
#71280000
0#
0+
#71550000
1#
1+
b101 2
b11111 3
#71820000
0#
0+
#72090000
1#
1+
b110 2
b111111 3
#72360000
0#
0+
#72630000
1#
1+
b111 2
b1111111 3
#72900000
0#
0+
#73170000
1#
1+
b1000 2
b11111111 3
#73440000
0#
0+
#73710000
1#
1+
b1001 2
b111111111 3
#73780000
1!
#73980000
0#
0+
#74250000
1#
1+
b1010 2
b1111111111 3
#74520000
0#
0+
#74790000
1#
1+
b1011 2
b11111111111 3
#75060000
0#
0+
#75330000
1#
1+
b1100 2
b111111111111 3
#75600000
0#
0+
#75870000
1#
1+
b1101 2
b1111111111111 3
#76140000
0#
0+
#76410000
1#
1+
b1110 2
b11111111111111 3
#76680000
0#
0+
#76950000
1#
1+
b1000 /
b1111 2
b0 3
b11010101 4
b11111111111111 E
#77220000
0#
0+
#77490000
1#
1+
b0 2
#77760000
0#
0+
#78030000
1#
1+
b1 2
b1 3
#78120000
0!
#78300000
0#
0+
#78570000
1#
1+
b10 2
b11 3
#78840000
0#
0+
#79110000
1#
1+
b11 2
b111 3
#79380000
0#
0+
#79650000
1#
1+
b100 2
b1111 3
#79920000
0#
0+
#80190000
1#
1+
b101 2
b11111 3
#80460000
0#
0+
#80730000
1#
1+
b110 2
b111111 3
#81000000
0#
0+
#81270000
1#
1+
b111 2
b1111111 3
#81540000
0#
0+
#81810000
1#
1+
b1000 2
b11111111 3
#82080000
0#
0+
#82350000
1#
1+
b1001 2
b111111111 3
#82460000
1!
#82620000
0#
0+
#82890000
1#
1+
b1010 2
b1111111111 3
#83160000
0#
0+
#83430000
1#
1+
b1011 2
b11111111111 3
#83700000
0#
0+
#83970000
1#
1+
b1100 2
b111111111111 3
#84240000
0#
0+
#84510000
1#
1+
b1101 2
b1111111111111 3
#84780000
0#
0+
#85050000
1#
1+
b1110 2
b11111111111111 3
#85320000
0#
0+
#85590000
1#
1+
b1001 /
b1111 2
b0 3
b111010101 4
#85860000
0#
0+
#86130000
1#
1+
b11 1
b0 2
#86400000
0#
0+
#86670000
1#
b11010101 $
1%
1&
1+
b11010101 ,
1-
1.
b0 1
#86800000
0!
#86940000
0#
0+
#87210000
1#
b0 $
0%
0&
1+
b0 ,
0-
0.
b0 /
10
